Thread 39 Total Time:149.80892 
Thread 379 Total Time:494.06495 
Thread 285 Total Time:250.654552 
Thread 199 Total Time:143.91102 
Thread 244 Total Time:383.594807 
Thread 415 Total Time:270.83245 
Thread 78 Total Time:145.948519 
Thread 213 Total Time:148.687025 
Thread 303 Total Time:144.240414 
Thread 424 Total Time:192.188511 
Thread 385 Total Time:389.896385 
Thread 34 Total Time:274.806703 
Thread 331 Total Time:143.02828 
Thread 329 Total Time:239.538138 
Thread 321 Total Time:215.160765 
Thread 202 Total Time:148.817909 
Thread 421 Total Time:144.788778 
Thread 42 Total Time:207.769877 
Thread 212 Total Time:270.80134699999996 
Thread 211 Total Time:144.815958 
Thread 260 Total Time:148.028054 
Thread 40 Total Time:250.756536 
Thread 419 Total Time:144.812161 
Thread 404 Total Time:270.85323 
Thread 205 Total Time:143.889822 
Thread 140 Total Time:142.715368 
Thread 436 Total Time:146.513857 
Thread 139 Total Time:255.576082 
Thread 391 Total Time:270.88605 
Thread 152 Total Time:225.751808 
Thread 376 Total Time:202.36132 
Thread 195 Total Time:325.960132 
Thread 314 Total Time:144.194776 
Thread 74 Total Time:129.952659 
Thread 387 Total Time:145.762623 
Thread 190 Total Time:195.910543 
Thread 218 Total Time:145.533846 
Thread 102 Total Time:144.585474 
Thread 318 Total Time:145.141915 
Thread 307 Total Time:130.476275 
Thread 425 Total Time:144.797691 
Thread 149 Total Time:167.40732 
Thread 422 Total Time:270.795053 
Thread 252 Total Time:158.486171 
Thread 210 Total Time:351.25280799999996 
Thread 188 Total Time:143.95778 
Thread 231 Total Time:205.605492 
Thread 272 Total Time:226.590991 
Thread 330 Total Time:280.451833 
Thread 346 Total Time:147.503851 
Thread 114 Total Time:200.074507 
Thread 215 Total Time:145.523905 
Thread 83 Total Time:144.756535 
Thread 115 Total Time:198.181658 
Thread 222 Total Time:144.804741 
Thread 392 Total Time:270.911013 
Thread 393 Total Time:158.129116 
Thread 135 Total Time:186.503315 
Thread 184 Total Time:143.965966 
Thread 153 Total Time:157.882128 
Thread 397 Total Time:270.88818200000003 
Thread 386 Total Time:292.927054 
Thread 280 Total Time:148.11158 
Thread 180 Total Time:147.316161 
Thread 442 Total Time:402.253449 
Thread 308 Total Time:160.607047 
Thread 356 Total Time:142.923558 
Thread 400 Total Time:194.030244 
Thread 443 Total Time:424.254258 
Thread 220 Total Time:145.650934 
Thread 171 Total Time:372.019001 
Thread 141 Total Time:256.686752 
Thread 239 Total Time:211.008545 
Thread 234 Total Time:203.906873 
Thread 26 Total Time:196.435255 
Thread 119 Total Time:274.620742 
Thread 409 Total Time:144.837636 
Thread 176 Total Time:129.919567 
Thread 334 Total Time:144.054029 
Thread 403 Total Time:1433.852898 
Thread 75 Total Time:186.880875 
Thread 251 Total Time:2762.3708450000004 
Thread 223 Total Time:2546.9824689999996 
Thread 189 Total Time:143.988275 
Thread 168 Total Time:144.031808 
Thread 268 Total Time:2667.3476879999994 
Thread 163 Total Time:145.927227 
Thread 55 Total Time:2705.932118 
Thread 166 Total Time:144.063051 
Thread 433 Total Time:329.953484 
Thread 233 Total Time:2693.6723109999994 
Thread 175 Total Time:144.909014 
Thread 430 Total Time:2690.141975 
Thread 388 Total Time:270.892812 
Thread 187 Total Time:143.960096 
Thread 192 Total Time:143.928717 
Thread 125 Total Time:2744.535699000001 
Thread 24 Total Time:2840.838652 
Thread 185 Total Time:2664.648345999999 
Thread 383 Total Time:270.90628300000003 
Thread 441 Total Time:427.970548 
Thread 104 Total Time:143.718733 
Thread 261 Total Time:2739.531218000001 
Thread 197 Total Time:2788.2120279999995 
Thread 295 Total Time:2780.667516000001 
Thread 179 Total Time:131.317233 
Thread 50 Total Time:2878.2327280000004 
Thread 134 Total Time:2779.655947 
Thread 209 Total Time:2690.0489799999996 
Thread 113 Total Time:2841.500602 
Thread 106 Total Time:2690.070130999999 
Thread 59 Total Time:223.588352 
Thread 90 Total Time:2656.630444 
Thread 155 Total Time:2689.8037199999994 
Thread 130 Total Time:2748.696464 
Thread 206 Total Time:161.753468 
Thread 183 Total Time:2680.5056819999995 
Thread 96 Total Time:2800.4075639999996 
Thread 200 Total Time:2755.81581 
Thread 348 Total Time:2836.9557070000005 
Thread 241 Total Time:2767.4529119999997 
Thread 408 Total Time:2780.6961480000004 
Thread 132 Total Time:2757.8088990000006 
Thread 129 Total Time:2873.292387 
Thread 47 Total Time:2766.5083160000004 
Thread 174 Total Time:2823.567288000001 
Thread 335 Total Time:2812.659398 
Thread 245 Total Time:159.53884 
Thread 12 Total Time:2727.0391229999996 
Thread 371 Total Time:2758.156915 
Thread 417 Total Time:2822.221863999999 
Thread 361 Total Time:2725.5360780000005 
Thread 390 Total Time:2865.768488 
Thread 281 Total Time:2826.812468 
Thread 246 Total Time:148.058629 
Thread 382 Total Time:2750.039706 
Thread 439 Total Time:2785.4889690000005 
Thread 292 Total Time:2735.1507609999985 
Thread 238 Total Time:2751.9309780000003 
Thread 276 Total Time:2716.1180950000007 
Thread 6 Total Time:2849.3817500000005 
Thread 100 Total Time:2755.9212609999995 
Thread 282 Total Time:2807.0604470000007 
Thread 92 Total Time:2765.6907640000013 
Thread 58 Total Time:2827.9402489999993 
Thread 325 Total Time:147.795562 
Thread 253 Total Time:2888.9738339999994 
Thread 365 Total Time:2882.9004399999994 
Thread 64 Total Time:2758.9899130000003 
Thread 416 Total Time:2816.189229999999 
Thread 389 Total Time:2739.451311 
Thread 67 Total Time:2840.56382 
Thread 354 Total Time:2816.7618079999993 
Thread 2 Total Time:2881.2212179999997 
Thread 53 Total Time:2837.9186559999994 
Thread 351 Total Time:2768.44643 
Thread 423 Total Time:270.786915 
Thread 201 Total Time:2843.5867519999997 
Thread 262 Total Time:2818.43356 
Thread 29 Total Time:2870.224989 
Thread 76 Total Time:2846.3151779999994 
Thread 237 Total Time:2847.815879 
Thread 449 Total Time:2793.0397120000002 
Thread 45 Total Time:2831.138569 
Thread 93 Total Time:145.648811 
Thread 117 Total Time:3151.0101119999995 
Thread 107 Total Time:2872.9010980000007 
Thread 367 Total Time:2779.899519 
Thread 255 Total Time:2848.987093 
Thread 375 Total Time:2772.488687 
Thread 146 Total Time:2831.643498 
Thread 181 Total Time:3489.379389 
Thread 357 Total Time:3472.4414339999994 
Thread 61 Total Time:2827.828097 
Thread 121 Total Time:3408.2846210000002 
Thread 116 Total Time:2790.1610950000004 
Thread 173 Total Time:2772.2690570000004 
Thread 427 Total Time:2824.527099 
Thread 5 Total Time:3012.5471499999994 
Thread 164 Total Time:2859.7219830000004 
Thread 341 Total Time:3545.462652 
Thread 291 Total Time:2971.261852 
Thread 345 Total Time:2762.051211000001 
Thread 247 Total Time:2839.1750899999997 
Thread 18 Total Time:2950.470943000001 
Thread 28 Total Time:149.306849 
Thread 299 Total Time:2844.4593539999996 
Thread 298 Total Time:2871.396981 
Thread 445 Total Time:2810.675054000001 
Thread 313 Total Time:2812.737945000001 
Thread 340 Total Time:2773.2562829999993 
Thread 48 Total Time:2902.3410969999986 
Thread 81 Total Time:2927.7015500000007 
Thread 384 Total Time:3642.4470699999997 
Thread 70 Total Time:2872.6385999999993 
Thread 226 Total Time:3208.6363579999997 
Thread 437 Total Time:3382.0355979999995 
Thread 407 Total Time:270.845662 
Thread 306 Total Time:2868.245983 
Thread 196 Total Time:2888.609951 
Thread 7 Total Time:2760.02456 
Thread 109 Total Time:3402.1934370000004 
Thread 13 Total Time:2895.383634 
Thread 236 Total Time:4280.877761999999 
Thread 157 Total Time:32.949792 
Thread 221 Total Time:2914.8633259999997 
Thread 311 Total Time:3484.8586 
Thread 266 Total Time:3480.255503 
Thread 274 Total Time:3509.4339639999994 
Thread 320 Total Time:3382.7816420000004 
Thread 353 Total Time:2919.819931 
Thread 328 Total Time:168.227313 
Thread 97 Total Time:3589.5753489999997 
Thread 362 Total Time:2889.3233099999993 
Thread 378 Total Time:2719.683986 
Thread 287 Total Time:3426.524272 
Thread 186 Total Time:3441.742475 
Thread 80 Total Time:3491.0779669999997 
Thread 248 Total Time:2793.302563999999 
Thread 283 Total Time:2987.700064 
Thread 193 Total Time:131.915049 
Thread 1 Total Time:195.1805 
Thread 324 Total Time:2936.4538070000012 
Thread 86 Total Time:3695.1009180000005 
Thread 344 Total Time:3419.923059 
Thread 250 Total Time:2716.37361 
Thread 122 Total Time:3547.849542 
Thread 3 Total Time:40.371634 
Thread 207 Total Time:2851.5232539999997 
Thread 151 Total Time:227.532728 
Thread 342 Total Time:3506.1856080000007 
Thread 286 Total Time:2839.7080899999983 
Thread 22 Total Time:3455.257833000001 
Thread 301 Total Time:3498.586878999999 
Thread 358 Total Time:3485.0803529999994 
Thread 394 Total Time:3558.3711869999997 
Thread 438 Total Time:2912.0600149999996 
Thread 327 Total Time:3476.212164000001 
Thread 124 Total Time:3139.154308000001 
Thread 333 Total Time:2866.493869 
Thread 84 Total Time:2805.6158499999997 
Thread 167 Total Time:2819.0575059999996 
Thread 366 Total Time:3515.01383 
Thread 312 Total Time:3447.672516 
Thread 267 Total Time:3405.819807999999 
Thread 177 Total Time:224.257133 
Thread 360 Total Time:2853.1405890000005 
Thread 68 Total Time:2806.387477000001 
Thread 161 Total Time:2906.892717000001 
Thread 339 Total Time:3530.8014499999995 
Thread 147 Total Time:2791.6537300000005 
Thread 372 Total Time:3415.132754 
Thread 257 Total Time:2922.091258 
Thread 79 Total Time:2907.856056 
Thread 191 Total Time:2775.1358470000005 
Thread 323 Total Time:2909.557735 
Thread 232 Total Time:2940.5302540000002 
Thread 154 Total Time:2785.6421890000006 
Thread 326 Total Time:3380.9412799999996 
Thread 30 Total Time:3454.5755459999996 
Thread 426 Total Time:3786.7592630000004 
Thread 11 Total Time:279.6131 
Thread 347 Total Time:2814.0972079999997 
Thread 302 Total Time:3494.905311000001 
Thread 263 Total Time:2713.0956290000004 
Thread 229 Total Time:3675.117612 
Thread 448 Total Time:3539.567355 
Thread 380 Total Time:2808.579735 
Thread 8 Total Time:2996.769782 
Thread 136 Total Time:2912.215739 
Thread 214 Total Time:2896.6154730000003 
Thread 120 Total Time:2745.237307000001 
Thread 235 Total Time:4326.018611999998 
Thread 277 Total Time:2800.4331469999997 
Thread 217 Total Time:3382.0408080000007 
Thread 148 Total Time:3368.863145 
Thread 265 Total Time:3140.7115670000007 
Thread 435 Total Time:131.773135 
Thread 396 Total Time:2740.779933 
Thread 349 Total Time:3394.340007 
Thread 10 Total Time:36.310643 
Thread 258 Total Time:3503.8269320000004 
Thread 370 Total Time:3508.538175 
Thread 332 Total Time:3491.450725 
Thread 418 Total Time:2816.8406449999998 
Thread 343 Total Time:3598.240352000001 
Thread 60 Total Time:157.59672 
Thread 309 Total Time:3729.849460000001 
Thread 411 Total Time:3166.178983 
Thread 428 Total Time:3797.6494530000014 
Thread 21 Total Time:48.444716 
Thread 293 Total Time:2831.7634880000005 
Thread 137 Total Time:3397.218641 
Thread 363 Total Time:3364.2901589999988 
Thread 405 Total Time:3423.163399 
Thread 159 Total Time:3304.7518859999996 
Thread 227 Total Time:2731.4141470000004 
Thread 69 Total Time:37.502548 
Thread 88 Total Time:3464.0848799999994 
Thread 105 Total Time:3854.915201 
Thread 322 Total Time:3777.687128 
Thread 271 Total Time:3420.4515490000003 
Thread 94 Total Time:2771.8343939999995 
Thread 87 Total Time:3475.2196830000007 
Thread 429 Total Time:3706.5171659999996 
Thread 63 Total Time:145.541899 
Thread 440 Total Time:3395.615396 
Thread 98 Total Time:3280.680221000002 
Thread 4 Total Time:3331.97879 
Thread 359 Total Time:3316.924472999999 
Thread 305 Total Time:3801.041498 
Thread 319 Total Time:3584.629502999999 
Thread 33 Total Time:157.819121 
Thread 249 Total Time:2724.579745 
Thread 91 Total Time:3431.0902309999997 
Thread 355 Total Time:4003.5740449999994 
Thread 9 Total Time:3420.3996530000004 
Thread 243 Total Time:3967.0946269999995 
Thread 170 Total Time:3486.2201469999995 
Thread 259 Total Time:3341.161623000001 
Thread 123 Total Time:3623.0377040000003 
Thread 162 Total Time:3326.0877769999997 
Thread 256 Total Time:2796.1117760000006 
Thread 401 Total Time:3316.985426 
Thread 225 Total Time:3789.45697 
Thread 208 Total Time:3332.8081709999988 
Thread 374 Total Time:2821.7058540000003 
Thread 203 Total Time:141.800608 
Thread 178 Total Time:3352.4263459999993 
Thread 103 Total Time:3840.8131799999987 
Thread 0 Total Time:174.406588 
Thread 317 Total Time:4044.6779270000006 
Thread 118 Total Time:131.169218 
Thread 368 Total Time:3405.5793919999996 
Thread 406 Total Time:3322.1198329999993 
Thread 228 Total Time:3960.3259339999995 
Thread 110 Total Time:4132.572491000001 
Thread 432 Total Time:4334.063163999999 
Thread 101 Total Time:3734.781128 
Thread 254 Total Time:3303.7047350000007 
Thread 364 Total Time:3068.191504 
Thread 447 Total Time:3514.1271080000006 
Thread 138 Total Time:3386.372607999999 
Thread 369 Total Time:3293.787692000001 
Thread 127 Total Time:3177.974192999999 
Thread 288 Total Time:3361.718475000001 
Thread 338 Total Time:3141.5372979999997 
Thread 275 Total Time:3074.994641 
Thread 37 Total Time:91.783568 
Thread 131 Total Time:128.637951 
Thread 242 Total Time:150.703545 
Thread 444 Total Time:3631.5501289999993 
Thread 169 Total Time:3878.2229439999996 
Thread 52 Total Time:502.659169 
Thread 14 Total Time:148.587727 
Thread 49 Total Time:94.91591700000001 
Thread 198 Total Time:3959.340941 
Thread 352 Total Time:136.609028 
Thread 142 Total Time:3358.9329910000006 
Thread 51 Total Time:148.657151 
Thread 72 Total Time:2661.504529000001 
Thread 410 Total Time:3297.491095 
Thread 54 Total Time:146.681898 
Thread 289 Total Time:3349.5905609999995 
Thread 41 Total Time:3198.7438739999993 
Thread 73 Total Time:3904.731584999999 
Thread 62 Total Time:3488.9866450000004 
Thread 412 Total Time:4346.708403999999 
Thread 57 Total Time:132.613028 
Thread 350 Total Time:3216.4419530000005 
Thread 310 Total Time:134.193832 
Thread 431 Total Time:3238.289851 
Thread 15 Total Time:34.638773 
Thread 269 Total Time:3162.2753730000004 
Thread 65 Total Time:129.50773 
Thread 336 Total Time:3732.4471590000003 
Thread 35 Total Time:130.085689 
Thread 315 Total Time:3957.1347539999997 
Thread 284 Total Time:4265.915880999999 
Thread 156 Total Time:3385.426240000001 
Thread 46 Total Time:131.705415 
Thread 204 Total Time:3943.892123000002 
Thread 399 Total Time:250.553854 
Thread 133 Total Time:884.480425 
Thread 165 Total Time:86.566398 
Thread 216 Total Time:3869.7440870000005 
Thread 36 Total Time:145.991045 
Thread 66 Total Time:146.480932 
Thread 398 Total Time:3173.6882320000004 
Thread 219 Total Time:193.893295 
Thread 71 Total Time:3467.912963999999 
Thread 290 Total Time:3509.800554000001 
Thread 373 Total Time:3758.4763499999985 
Thread 300 Total Time:197.990996 
Thread 279 Total Time:2876.3787659999994 
Thread 17 Total Time:146.520308 
Thread 82 Total Time:1006.758912 
Thread 224 Total Time:4256.746745 
Thread 182 Total Time:3635.0375899999995 
Thread 16 Total Time:132.655272 
Thread 395 Total Time:3495.459172999999 
Thread 77 Total Time:3930.727723000001 
Thread 377 Total Time:3119.0912559999997 
Thread 145 Total Time:163.731706 
Thread 294 Total Time:3992.230541 
Thread 158 Total Time:246.171513 
Thread 297 Total Time:129.180847 
Thread 150 Total Time:126.698791 
Thread 230 Total Time:3164.887025 
Thread 56 Total Time:70.634533 
Thread 337 Total Time:229.217498 
Thread 316 Total Time:3359.1266800000003 
Thread 381 Total Time:3976.0110619999987 
Thread 278 Total Time:3311.559889999999 
Thread 434 Total Time:4136.029898 
Thread 112 Total Time:35.633438 
Thread 144 Total Time:3802.723754999999 
Thread 44 Total Time:147.8054 
Thread 38 Total Time:145.790166 
Thread 32 Total Time:172.843751 
Thread 194 Total Time:104.714884 
Thread 111 Total Time:857.533009 
Thread 304 Total Time:174.483569 
Thread 31 Total Time:132.818718 
Thread 126 Total Time:128.59275300000002 
Thread 270 Total Time:136.089776 
Thread 273 Total Time:264.651063 
Thread 20 Total Time:146.536535 
Thread 143 Total Time:130.214296 
Thread 240 Total Time:132.621864 
Thread 296 Total Time:130.531449 
Thread 89 Total Time:127.677975 
Thread 413 Total Time:128.374911 
Thread 446 Total Time:130.516384 
Thread 128 Total Time:927.67643 
Thread 414 Total Time:127.547139 
Thread 95 Total Time:126.602796 
Thread 19 Total Time:38.512796 
Thread 43 Total Time:158.746569 

###Summary#####
Total Request sent per thread : 500 
Total Request sent over using 450 threads : 225000 
Total response Time taken from 450 threads : 873743.7422099998 secs 
